<?xml version="1.0" encoding="UTF-8"?>
<svg width="1024px" height="1024px" viewBox="0 0 1024 1024" version="1.1" xmlns="http://www.w3.org/2000/svg" xmlns:xlink="http://www.w3.org/1999/xlink">
    <!-- Generator: Sketch 61.2 (89653) - https://sketch.com -->
    <title>icon-white-basic-arrowright</title>
    <desc>Created with Sketch.</desc>
    <g id="icon-white-basic-arrowright" stroke="none" stroke-width="1" fill="none" fill-rule="evenodd">
        <rect id="background" x="0" y="0" width="1024" height="1024"></rect>
        <path d="M1023.9085,522.293855 C1024.0305,519.814854 1024.0305,517.335853 1023.9085,514.854852 C1022.8805,499.429846 1016.6495,484.79084 1006.24449,473.357835 L683.255364,124.390696 C657.846354,96.7456849 614.774336,94.9316842 587.128325,120.274694 C586.884325,120.457694 586.642325,120.699694 586.461325,120.941695 C558.633314,147.013705 557.121313,190.627722 583.073324,218.513734 L798.37941,451.398827 L68.7241183,451.398827 C30.7321031,451.460827 -0.0609091981,482.371839 0,520.358854 C0,521.084854 0.48409102,521.568855 0.48409102,522.355855 C0.48409102,523.080855 0,523.505855 0,524.291856 C-0.0609091981,562.218871 30.6121031,593.129883 68.6031182,593.249883 L798.37941,593.249883 L583.012324,826.259976 C557.121313,854.145988 558.633314,897.699005 586.400325,923.709015 C598.92333,935.68702 615.620337,942.400023 632.983344,942.400023 C652.040351,942.400023 670.249359,934.41602 683.134364,920.383014 L1006.18349,571.292875 C1016.5905,559.79987 1022.8215,545.221864 1023.8495,529.734858 C1023.9705,527.254857 1023.9705,524.774856 1023.8495,522.293855" id="icon-arrow" fill="#FFFFFF"></path>
    </g>
</svg>